[
   {
      "name": "All devices",
      "description": "This might be a good or bad device. However we don't have enough data to determine the usability status of this device. If you know further details, please update this page."
   },
   {
      "name": "Any Hardware Compatibility",
      "description": "Most basic functionalities are not working yet. If you have the skills to continue the porting process, this could be your next device."
   },
   {
      "name": "Booting Device",
      "description": "Minimal system components are functional, but the device is not able to perform well yet. If you need complete calling and cellular data functionalities (as applicable), consider choosing a different device."
   },
   {
      "name": "Core Connectivity",
      "description": "The device has basic data capabilities and can connect to mobile networks (as applicable), but currently offers minimal features, and some of the smart functionalities might not work yet. It can be a very nice second device."
   },
   {
      "name": "Essential Feature Support",
      "description": "Boots and runs well, essential features work correctly. It can be used as a mobile device running Ubuntu Touch OS. Recommended for advanced users."
   },
   {
      "name": "Fully Optimized",
      "description": "Runs very smoothly without any flaws. The experience on this device will be comparable to other mobile OSes on the market."
   }
]
