{
   "default": "focal",
   "list": [
      {
         "name": "xenial",
         "prettyName": "16.04 - xenial",
         "releaseChannelsName": "16.04",
         "supersededBy": "focal"
      },
      {
         "name": "focal",
         "prettyName": "20.04 - focal",
         "releaseChannelsName": "20.04"
      }
   ]
}
